…
We can use the vector to extract all these spectra as a collection.

``` r
sensors.mspct[licor_sensors]
#> Object: response_mspct [6 x 1]
#> --- Member: LICOR_LI_190SA ---
#> Object: response_spct [755 x 2]
#> Wavelength range 365.614-742.99 nm, step 0.5004987 nm 
#> Time unit 1s
#> 
#> # A tibble: 755 × 2
#>    w.length s.q.response
#>       <dbl>        <dbl>
#>  1     366.      0.00181
#>  2     366.      0.00188
#>  3     367.      0.00195
#>  4     367.      0.00202
#>  5     368.      0.00209
#>  6     368.      0.00217
#>  7     369.      0.00224
#>  8     369.      0.00231
#>  9     370.      0.00238
#> 10     370.      0.00245
#> # … with 745 more rows
#> --- Member: LICOR_LI_200 ---
#> Object: response_spct [64 x 2]
#> Wavelength range 376.154-1106.97 nm, step 2.68-51.052 nm 
#> Time unit 1s
#> 
#> # A tibble: 64 × 2
#>    w.length s.e.response
#>       <dbl>        <dbl>
#>  1     376.       0.0272
#>  2     382.       0.0543
#>  3     392.       0.0788
#>  4     395.       0.106 
#>  5     400.       0.133 
#>  6     406.       0.160 
#>  7     414.       0.185 
#>  8     425.       0.209 
#>  9     435.       0.234 
#> 10     451.       0.255 
#> # … with 54 more rows
#> --- Member: LICOR_LI_210 ---
#> Object: response_spct [78 x 2]
#> Wavelength range 382.387-715.931 nm, step 1.683-10.516 nm 
#> Time unit 1s
#> 
#> # A tibble: 78 × 2
#>    w.length s.e.response
#>       <dbl>        <dbl>
#>  1     382.      0.00335
#>  2     387.      0.00670
#>  3     390.      0.00838
#>  4     395.      0.0101 
#>  5     403.      0.0101 
#>  6     411.      0.0117 
#>  7     414.      0.0117 
#>  8     417.      0.0134 
#>  9     420.      0.0151 
#> 10     424.      0.0168 
#> # … with 68 more rows
#> --- Member: LICOR_LI_190 ---
#> Object: response_spct [834 x 2]
#> Wavelength range 381.85375-798.83668 nm, step 0.5005798 nm 
#> Time unit 1s
#> 
#> # A tibble: 834 × 2
#>    w.length s.e.response
#>       <dbl>        <dbl>
#>  1     382.       0.0281
#>  2     382.       0.0298
#>  3     383.       0.0314
#>  4     383.       0.0331
#>  5     384.       0.0347
#>  6     384.       0.0363
#>  7     385.       0.0379
#>  8     385.       0.0391
#>  9     386.       0.0403
#> 10     386.       0.0415
#> # … with 824 more rows
#> --- Member: LICOR_LI_190R ---
#> Object: response_spct [834 x 2]
#> Wavelength range 380.76093-797.90271 nm, step 0.5007704 nm 
#> Time unit 1s
#> 
#> # A tibble: 834 × 2
#>    w.length s.q.response
#>       <dbl>        <dbl>
#>  1     381.      0.00469
#>  2     381.      0.00469
#>  3     382.      0.00468
#>  4     382.      0.00468
#>  5     383.      0.00468
#>  6     383.      0.00467
#>  7     384.      0.00467
#>  8     384.      0.00467
#>  9     385.      0.00466
#> 10     385.      0.00509
#> # … with 824 more rows
#> --- Member: LICOR_LI_210R ---
#> Object: response_spct [637 x 2]
#> Wavelength range 403.05175-721.67386 nm, step 0.5009782 nm 
#> Time unit 1s
#> 
#> # A tibble: 637 × 2
#>    w.length s.e.response
#>       <dbl>        <dbl>
#>  1     403.     0.00111 
#>  2     404.     0.00111 
#>  3     404.     0.00111 
#>  4     405.     0.00110 
#>  5     405.     0.00110 
#>  6     406.     0.00110 
#>  7     406.     0.00109 
#>  8     407.     0.000988
#>  9     407.     0.000171
#> 10     408.     0.000406
#> # … with 627 more rows
…
