User Guide: 1 Using the Data
…
We can use a character string as index to extract an individual
response_spct object.

sensors.mspct$LICOR_LI_190

## Object: response_spct [834 x 2]
## Wavelength range 381.85375-798.83668 nm, step 0.5005798 nm 
## Time unit 1s
## 
## # A tibble: 834 × 2
##    w.length s.e.response
##       <dbl>        <dbl>
##  1     382.       0.0281
##  2     382.       0.0298
##  3     383.       0.0314
##  4     383.       0.0331
##  5     384.       0.0347
##  6     384.       0.0363
##  7     385.       0.0379
##  8     385.       0.0391
##  9     386.       0.0403
## 10     386.       0.0415
## # ℹ 824 more rows

sensors.mspct[["LICOR_LI_190"]]

## Object: response_spct [834 x 2]
## Wavelength range 381.85375-798.83668 nm, step 0.5005798 nm 
## Time unit 1s
## 
## # A tibble: 834 × 2
##    w.length s.e.response
##       <dbl>        <dbl>
##  1     382.       0.0281
##  2     382.       0.0298
##  3     383.       0.0314
##  4     383.       0.0331
##  5     384.       0.0347
##  6     384.       0.0363
##  7     385.       0.0379
##  8     385.       0.0391
##  9     386.       0.0403
## 10     386.       0.0415
## # ℹ 824 more rows

Be aware that according to R’s rules, using single square brackets
will return a response_mspct object possibly of length one.
This statement is not equivalent to the one in the chunk immediately
above.

sensors.mspct["LICOR_LI_190"]

## Object: response_mspct [1 x 1]
## --- Member: LICOR_LI_190 ---
## Object: response_spct [834 x 2]
## Wavelength range 381.85375-798.83668 nm, step 0.5005798 nm 
## Time unit 1s
## 
## # A tibble: 834 × 2
##    w.length s.e.response
##       <dbl>        <dbl>
##  1     382.       0.0281
##  2     382.       0.0298
##  3     383.       0.0314
##  4     383.       0.0331
##  5     384.       0.0347
##  6     384.       0.0363
##  7     385.       0.0379
##  8     385.       0.0391
##  9     386.       0.0403
## 10     386.       0.0415
## # ℹ 824 more rows
## 
## --- END ---
…
We can subset sensors.mspct object by indexing with
vectors of character strings. The package provides some predefined ones,
and users can easily define their own, either as constants or through
computation. Here we use a vector defined by the package.

sensors.mspct[berger_sensors]

## Object: response_mspct [1 x 1]
## --- Member: Berger_UV_Biometer ---
## Object: response_spct [21 x 2]
## Wavelength range 279.872-378.458 nm, step 3.311-5.284 nm 
## Time unit 1s
## 
## # A tibble: 21 × 2
##    w.length s.e.response
##       <dbl>        <dbl>
##  1     280.      0.747  
##  2     285.      0.912  
##  3     290.      1      
##  4     295.      0.985  
##  5     300.      0.770  
##  6     305.      0.471  
##  7     310.      0.215  
##  8     315.      0.0782 
##  9     320.      0.0263 
## 10     325.      0.00845
## # ℹ 11 more rows
## 
## --- END ---

More generally one can search for matching names within the
collection of spectra.

sensors.mspct[grep("berger", names(sensors.mspct), ignore.case = TRUE)]

## Object: response_mspct [1 x 1]
## --- Member: Berger_UV_Biometer ---
## Object: response_spct [21 x 2]
## Wavelength range 279.872-378.458 nm, step 3.311-5.284 nm 
## Time unit 1s
## 
## # A tibble: 21 × 2
##    w.length s.e.response
##       <dbl>        <dbl>
##  1     280.      0.747  
##  2     285.      0.912  
##  3     290.      1      
##  4     295.      0.985  
##  5     300.      0.770  
##  6     305.      0.471  
##  7     310.      0.215  
##  8     315.      0.0782 
##  9     320.      0.0263 
## 10     325.      0.00845
## # ℹ 11 more rows
## 
## --- END ---

Set algebra operations can be used with the indexing vectors as each
vector describes a single property: color, brand, type, etc.

sensors.mspct[intersect(licor_sensors, par_sensors)]

## Object: response_mspct [1 x 1]
## --- Member: LICOR_LI_190 ---
## Object: response_spct [834 x 2]
## Wavelength range 381.85375-798.83668 nm, step 0.5005798 nm 
## Time unit 1s
## 
## # A tibble: 834 × 2
##    w.length s.e.response
##       <dbl>        <dbl>
##  1     382.       0.0281
##  2     382.       0.0298
##  3     383.       0.0314
##  4     383.       0.0331
##  5     384.       0.0347
##  6     384.       0.0363
##  7     385.       0.0379
##  8     385.       0.0391
##  9     386.       0.0403
## 10     386.       0.0415
## # ℹ 824 more rows
## 
## --- END ---
…
