User Guide • photobiologySensors
…
## $<NA>
## NULL

Accessing subsets of spectra

We can subset sensors.mspct object by indexing with vectors of character strings. The package provides some predefined ones, and users can easily define their own, either as constants or through computation. Here we use a vector defined by the package.

sensors.mspct[berger_sensors]

## $Berger_UV_Biometer
## Object: response_spct [21 x 2]
## Wavelength range 279.872 to 378.458 nm, step 3.311 to 5.284 nm 
## Time unit 1s
## 
## # A tibble: 21 x 2
##    w.length s.e.response
##       <dbl>        <dbl>
##  1      280      0.747  
##  2      285      0.912  
##  3      290      1.00   
##  4      295      0.985  
##  5      300      0.770  
##  6      305      0.471  
##  7      310      0.215  
##  8      315      0.0782 
##  9      320      0.0263 
## 10      325      0.00845
## # ... with 11 more rows

More generaly one can search for matching names within the collection of spectra.

sensors.mspct[grep("berger", names(sensors.mspct), ignore.case = TRUE)]

## $Berger_UV_Biometer
## Object: response_spct [21 x 2]
## Wavelength range 279.872 to 378.458 nm, step 3.311 to 5.284 nm 
## Time unit 1s
## 
## # A tibble: 21 x 2
##    w.length s.e.response
##       <dbl>        <dbl>
##  1      280      0.747  
##  2      285      0.912  
##  3      290      1.00   
##  4      295      0.985  
##  5      300      0.770  
##  6      305      0.471  
##  7      310      0.215  
##  8      315      0.0782 
##  9      320      0.0263 
## 10      325      0.00845
## # ... with 11 more rows

Set algebra operations can be used with the indexing vectors as each vector describes a single property: color, brand, type, etc.

sensors.mspct[intersect(licor_sensors, par_sensors)]

## $LI_190
## Object: response_spct [755 x 2]
## Wavelength range 365.614 to 742.99 nm, step 0.5004987 nm 
## Time unit 1s
## 
## # A tibble: 755 x 2
##    w.length s.q.response
##       <dbl>        <dbl>
##  1      366      0.00181
##  2      366      0.00188
##  3      367      0.00195
##  4      367      0.00202
##  5      368      0.00209
##  6      368      0.00217
##  7      369      0.00224
##  8      369      0.00231
##  9      370      0.00238
## 10      370      0.00245
## # ... with 745 more rows
…
